<?xml version="1.0"?>
<robot xmlns:xacro="http://ros.org/wiki/xacro">
  <!-- include macros -->
  <xacro:include filename="$(find workcell_5_description)/urdf/workcell_5_macro.xacro"/>
  <xacro:include filename="$(find fanuc_m710ic_support)/urdf/m710ic50_macro.xacro"/>
  <xacro:include filename="$(find fanuc_m710ic_sls_2_support)/urdf/sls_2_interface_macro.xacro"/>
  <xacro:include filename="$(find sls_2_description)/urdf/sls_2_macro.xacro"/>
  <xacro:include filename="$(find fanuc_m710ic_tire_machining_support)/urdf/motor_assembly_macro.xacro"/>
  <xacro:include filename="$(find michelin_tire_machining_definitions)/urdf/tire.xacro"/>
  <!-- Macro to create 6 joints/links between tool0 and SLS-2 frame -->
  <xacro:include filename="$(find industrial_extrinsic_cal)/urdf/calibration_transform_macro.xacro"/>

  <xacro:macro name="fanuc_m710ic_sls_2_support" params="prefix">
    <!-- instantiate everything -->
    <xacro:fanuc_m710ic50 prefix="${prefix}"/>
    <xacro:workcell_5 prefix="${prefix}"/>
    <xacro:sls_2_interface prefix="${prefix}"/>
    <xacro:sls_2 prefix="${prefix}" camera_angle="-0.2792" camera_trans="0.2"/>
    <xacro:tire prefix="${prefix}"/>

    <!-- attach motor assembly to axis 4 -->
    <xacro:motor_assembly prefix="${prefix}"/>
    <joint name="${prefix}link_4-machining_tool" type="fixed">
      <origin xyz="0.55 0 0.065" rpy="0 0 0"/>
      <parent link="${prefix}link_4"/>
      <child link="${prefix}motor_assembly"/>
    </joint>   

    <!-- attach workcell to robot model -->
    <joint name="${prefix}base_link-workcell_frame" type="fixed">
      <origin xyz="0 0 0" rpy="0 0 -0.1"/>
      <parent link="${prefix}base_link"/>
      <child link="${prefix}workcell_5_frame"/>
    </joint>

    <!-- attach SLS-2 interface to eef -->
    <joint name="${prefix}tool0-sls_2_interface_base_link" type="fixed">
      <origin xyz="0 0 0" rpy="0 0 0"/>
      <parent link="${prefix}tool0"/>
      <child link="${prefix}sls_2_interface_base_link"/>
    </joint>

    <!-- attach tire to robot model -->
    <!-- The tire mesh is available in the private repository michelin_tire_machining -->
    <joint name="${prefix}_tire_joint" type="fixed">
      <origin xyz="2.11 -0.08 -0.07" rpy="0 0 0"/>
      <parent link="${prefix}workcell_5_frame"/>
      <child link="${prefix}tire"/>
    </joint>

    <!-- Create 5 links and 6 joints between link sls_2_frame and tool0 link
         Uses child link as the child link of the 6th joint -->
    <xacro:calibration_definitions child_link="${prefix}sls_2_frame" parent_link="${prefix}tool0" />

    <!-- Calibration target definitions -->
    <link name="target_frame"/>
    <xacro:calibration_definitions child_link="target_frame" parent_link="base"/>
  </xacro:macro>
</robot>

