<?xml version="1.0"?>
<robot xmlns:xacro="http://ros.org/wiki/xacro" name="vision_eef">
  <xacro:include filename="$(find m900ib_vision_effector_description)/urdf/vision_eef_macro.xacro"/>
  <xacro:vision_eef prefix=""/>
</robot>
