<?xml version="1.0"?>
<robot xmlns:xacro="http://ros.org/wiki/xacro">
  <xacro:macro name="workcell_5" params="prefix">
    <link name="${prefix}workcell_5_frame">
      <visual>
        <origin xyz="0 0 -0.52" rpy="0 0 0"/>
        <geometry>
          <mesh filename="package://workcell_5_description/meshes/visual/workcell_5.dae"/>
        </geometry>
        <material name="light-grey">
          <color rgba="0.4 0.4 0.4 1"/>
        </material>
      </visual>
      <collision>
        <origin xyz="0 0 -0.52" rpy="0 0 0"/>
        <geometry>
          <mesh filename="package://workcell_5_description/meshes/collision/workcell_5.stl"/>
        </geometry>
      </collision>
    </link>
    <link name="${prefix}grinding_chair_frame">
      <visual>
        <origin xyz="0 0 0" rpy="0 0 0"/>
        <geometry>
          <mesh filename="package://workcell_5_description/meshes/visual/chair.dae"/>
        </geometry>
        <material name="black">
          <color rgba="0.2 0.2 0.2 1"/>
        </material>
      </visual>
      <collision>
        <origin xyz="0.0 0 0" rpy="0 0 0"/>
        <geometry>
          <mesh filename="package://workcell_5_description/meshes/collision/chair.stl"/>
        </geometry>
      </collision>
    </link>
    <link name="${prefix}grinding_table_frame">
      <visual>
        <origin xyz="0 0 0" rpy="0 0 0"/>
        <geometry>
          <mesh filename="package://workcell_5_description/meshes/visual/table.dae"/>
        </geometry>
        <material name="white">
          <color rgba="0.6 0.6 0.6 1"/>
        </material>
      </visual>
      <collision>
        <origin xyz="0.0 0 0" rpy="0 0 0"/>
        <geometry>
          <mesh filename="package://workcell_5_description/meshes/collision/table.stl"/>
        </geometry>
      </collision>
    </link>

    <joint name="${prefix}workcell_to_chair" type="fixed">
      <parent link="${prefix}workcell_5_frame" />
      <child link="${prefix}grinding_chair_frame" />
      <origin xyz="0 0 0" rpy="0 0 0"/>
    </joint>

    <joint name="${prefix}workcell_to_table" type="fixed">
      <parent link="${prefix}workcell_5_frame" />
      <child link="${prefix}grinding_table_frame" />
      <origin xyz="1.77 -0.05 -0.52" rpy="0 0 0"/>
    </joint>

  </xacro:macro>
</robot>
