<?xml version="1.0"?>
<robot xmlns:xacro="http://ros.org/wiki/xacro" name="machining_tool">
  <xacro:include filename="$(find fanuc_m710ic_tire_machining_support)/urdf/machining_tool_macro.xacro"/>
  <xacro:machining_tool prefix=""/>
</robot>
