<?xml version="1.0"?>
<robot xmlns:xacro="http://ros.org/wiki/xacro">
  <!-- Macro to create 6 joints/links between tool0 and SLS-2 frame -->
  <xacro:include filename="$(find industrial_extrinsic_cal)/urdf/calibration_transform_macro.xacro"/>

  <!-- include macros for robot, end effector, workcell -->
  <xacro:include filename="$(find fanuc_m900ib_support)/urdf/m900ib700_macro.xacro"/>
  <xacro:include filename="$(find m900ib_vision_effector_description)/urdf/vision_eef_macro.xacro"/>
<!--  <xacro:include filename="$(find fanuc_m900ib_sls_2_vision_support)/urdf/sls_2_interface_macro.xacro"/> -->
  <xacro:include filename="$(find sls_2_description)/urdf/sls_2_macro.xacro"/>

  <!-- create the robot and eef combo itself as a macro -->
  <xacro:macro name="fanuc_m900ib_sls_2_vision_support" params="prefix">
    <!-- instantiate everything -->
    <xacro:fanuc_m900ib700 prefix="${prefix}"/>
    <xacro:vision_eef prefix="${prefix}"/>
<!--
    <xacro:sls_2_interface prefix="${prefix}"/>
-->
    <xacro:sls_2 prefix="${prefix}" camera_angle="-0.2792" camera_trans="0.2"/>

    <!-- attach eef to robot model -->
    <joint name="${prefix}tool0-vision_eef_frame" type="fixed">
      <origin xyz="0 0 0" rpy="0 0 0"/>
      <parent link="${prefix}link_6"/>
      <child link="${prefix}vision_eef_frame"/>
    </joint>
    <link name="${prefix}vision_disk_tcp"/>
    <joint name="${prefix}tool0-vision_disk_tcp_frame" type="fixed">
      <origin xyz="0 0 0.327" rpy="0 0 0"/>
      <parent link="${prefix}tool0"/>
      <child link="${prefix}vision_disk_tcp"/>
    </joint>

    <!-- attach SLS-2 interface to eef - - >
    <joint name="${prefix}tool0-sls_2_interface_base_link" type="fixed">
      <origin xyz="0 0 0" rpy="0 0 0"/>
      <parent link="${prefix}tool0"/>
      <child link="${prefix}sls_2_interface_base_link"/>
    </joint>
-->

    <!-- Create 5 links and 6 joints between link sls_2_frame and tool0 link
         Uses child link as the child link of the 6th joint -->
    <xacro:calibration_definitions child_link="${prefix}sls_2_frame" parent_link="${prefix}tool0" />

    <!-- Calibration target definitions -->
    <link name="target_frame"/>
    <xacro:calibration_definitions child_link="target_frame" parent_link="base"/>
  </xacro:macro>
</robot>
